…
    ## Parsed with column specification:
    ## cols(
    ##   abstract = col_character(),
    ##   term = col_character()
    ## )

``` r
pubmed %>%
  unnest_tokens(output=token, input=abstract) %>%
  count(token, sort = T) %>%
  top_n(n=50, wt=n) 
```

    ## # A tibble: 50 x 2
    ##    token     n
    ##    <chr> <int>
    ##  1 the   28126
    ##  2 of    24760
    ##  3 and   19993
    ##  4 in    14653
    ##  5 to    10920
    ##  6 a      8245
    ##  7 with   8038
    ##  8 covid  7275
    ##  9 19     7080
    ## 10 is     5649
    ## # ... with 40 more rows
…
